Analyse de la population française
…
# Les noms des aires urbaines en toutes lettres (département, commune ...)

dossier_complet %>%
  count(GEO, sort = TRUE) %>%
  collect()

# A tibble: 38,020 × 2
   GEO       n
   <chr> <dbl>
 1 34301  5416
 2 12202  5398
 3 45208  5385
 4 56121  5385
 5 44109  5383
 6 13103  5376
 7 63113  5375
 8 49307  5375
 9 33214  5374
10 49301  5373
# ℹ 38,010 more rows

# Les codes communes/départements

dossier_complet %>%
  count(GEO_LABEL, sort = TRUE) %>%
  head(30) %>%
  collect()

# A tibble: 30 × 2
   GEO_LABEL          n
   <chr>          <dbl>
 1 Saint-Pierre   23759
 2 Saint-Paul     21956
 3 Valence        19462
 4 Sainte-Marie   19297
 5 Saint-Sauveur  19165
 6 Sainte-Colombe 18036
 7 Beaulieu       16723
 8 Chaumont       16677
 9 Saint-Louis    16228
10 Saint-Denis    16096
# ℹ 20 more rows

# Noms d'aires urbaines en toutes lettres

dossier_complet %>%
  count(TIME_PERIOD, sort = TRUE) %>%
  collect()

# A tibble: 22 × 2
   TIME_PERIOD        n
   <chr>          <dbl>
 1 2022        24821173
 2 2016        13661130
 3 2011        12726942
 4 2024         6554508
 5 2023         1985638
 6 2026         1538814
 7 2025         1107911
 8 1990          332429
 9 1982          332285
10 1999          332144
# ℹ 12 more rows

# 22 années différentes

dossier_complet %>%
  count(ID_TAB, sort = TRUE) %>%
  collect()

# A tibble: 82 × 2
   ID_TAB       n
   <chr>    <dbl>
 1 FOR_T1 7017360
 2 FOR_T2 2631510
 3 RES_T1 2508780
 4 FAM_G3 2349451
 5 RES_T2 2257902
 6 POP_T6 2112155
 7 FAM_T1 2094602
 8 LOG_G1 1868899
 9 LOG_T6 1746298
10 DEN_G1 1702657
# ℹ 72 more rows

# Il y en a 82

dossier_complet %>%
  count(ID_TAB_LABEL, sort = TRUE) %>%
  collect()

# A tibble: 72 × 2
   ID_TAB_LABEL                                                                n
   <chr>                                                                   <dbl>
 1 Scolarisation selon l'âge                                              7.02e6
 2 <NA>                                                                   3.48e6
 3 Taux de scolarisation selon le sexe (en %)                             2.63e6
 4 Établissements par secteur d'activité agrégé et tranche d'effectifs    2.51e6
 5 Personnes de 15 ans ou plus déclarant vivre en couple selon l'âge      2.35e6
 6 Effectifs salariés par secteur d'activité agrégé et tranche d'effecti… 2.26e6
 7 Lieu de résidence 1 an auparavant                                      2.11e6
 8 Ménages selon leur composition                                         2.09e6
 9 Résidences principales selon le type de logement et la période d'achè… 1.87e6
10 Population par sexe et âge                                             1.81e6
# ℹ 62 more rows

# Noms de ces différentes tables

dossier_complet %>%
  count(DS, sort = TRUE) %>%
  collect()

# A tibble: 33 × 2
   DS                            n
   <chr>                     <dbl>
 1 DS_RP_LOGEMENT_PRINC   10546112
 2 DS_RP_EDUCATION         7017360
 3 DS_FLORES_A5            5435690
 4 DS_RP_POPULATION_PRINC  4500978
 5 DS_RP_EMPLOI_LR_PRINC   3970719
 6 DS_RP_MENAGES_PRINC     3812670
 7 DS_RP_POPULATION_COMP   3162695
 8 DS_RP_DIPLOMES_PRINC    3090980
 9 DS_RP_SERIE_HISTORIQUE  2945400
10 DS_SIDE_CREA_ENT_COM    2392940
# ℹ 23 more rows

# Noms des différents datasets

dossier_complet %>%
  count(TAB_MEASURE, sort = TRUE) %>%
  collect()

# A tibble: 824 × 2
   TAB_MEASURE                       n
   <chr>                         <dbl>
 1 DWELLINGS_OCS_DW_MAIN       1503298
 2 POP                         1336415
 3 DWELLINGS                    798681
 4 UNIT_LOC_BURE                562361
 5 BURE                         554344
 6 POP_AGE_Y_GE15               542844
 7 BURE_LEGAL_FORM_10           537244
 8 POP_AGE_Y15T24               496794
 9 DWELLINGS_OCS_DW_VAC         492506
10 DWELLINGS_OCS_DW_SEC_DW_OCC  490084
# ℹ 814 more rows

# ID de toutes les variables qu'on mesure

dossier_complet %>%
  count(TAB_MEASURE_LABEL, sort = TRUE) %>%
  collect()

# A tibble: 817 × 2
   TAB_MEASURE_LABEL                                                           n
   <chr>                                                                   <dbl>
 1 "Logements – Résidences principales"                                   1.50e6
 2 "Population"                                                           1.34e6
 3 "Logements"                                                            7.99e5
 4 "Nombre de décès"                                                      7.51e5
 5 "Nombre de nouveaux établissements enregistrés"                        5.62e5
 6 "Nombre de nouvelles unités légales enregistrées"                      5.54e5
 7 "Population – 15 ans ou plus"                                          5.43e5
 8 "Nombre de nouvelles unités légales enregistrées – Entrepreneur indiv… 5.37e5
 9 "Population – De 15 à 24 ans "                                         4.97e5
10 "Logements – Logements vacants"                                        4.93e5
# ℹ 807 more rows

# Nom de toutes les variables qu'on mesure

dossier_complet %>%
  count(OBS_VALUE, sort = TRUE) %>%
  collect()

# A tibble: 19,279,534 × 2
   OBS_VALUE       n
       <dbl>   <dbl>
 1         0 5731509
 2         1 1868341
 3         2 1150678
 4         3  840651
 5         4  713821
 6         5  620572
 7         6  465362
 8         7  397491
 9         8  389421
10        10  332999
# ℹ 19,279,524 more rows
…
! Grouped output by "GEO_LABEL".
ℹ Override behaviour and silence this message with the `.groups` argument.
ℹ Or use `.by` instead of `group_by()`.

Warning: Missing values are always removed in SQL aggregation functions.
Use `na.rm = TRUE` to silence this warning
This warning is displayed once every 8 hours.

structure_villes_propres

# A tibble: 227,738 × 3
# Groups:   GEO_LABEL [32,613]
   GEO_LABEL  TAB_MEASURE_LABEL              population_exacte_ville
   <chr>      <chr>                                            <dbl>
 1 Aast       "Population – 80 ans ou plus"                        8
 2 Aast       "Population – De 15 à 24 ans "                      18
 3 Aast       "Population – De 25 à 39 ans"                       30
 4 Aast       "Population – De 40 à 54 ans"                       39
 5 Aast       "Population – De 55 à 64 ans"                       41
 6 Aast       "Population – De 65 à 79 ans"                       38
 7 Aast       "Population – Moins de 15 ans"                      21
 8 Abainville "Population – 80 ans ou plus"                       10
 9 Abainville "Population – De 15 à 24 ans "                      36
10 Abainville "Population – De 25 à 39 ans"                       36
# ℹ 227,728 more rows
…
  # Sélection finale
  select(GEO_LABEL, TAB_MEASURE_LABEL, population_exacte_dept) %>%
  arrange(GEO_LABEL, TAB_MEASURE_LABEL) %>%
  collect()

! Grouped output by "GEO_LABEL".
ℹ Override behaviour and silence this message with the `.groups` argument.
ℹ Or use `.by` instead of `group_by()`.

structure_departements

# A tibble: 700 × 3
# Groups:   GEO_LABEL [100]
   GEO_LABEL TAB_MEASURE_LABEL              population_exacte_dept
   <chr>     <chr>                                           <dbl>
 1 Ain       "Population – 80 ans ou plus"                   33730
 2 Ain       "Population – De 15 à 24 ans "                 101602
 3 Ain       "Population – De 25 à 39 ans"                  119008
 4 Ain       "Population – De 40 à 54 ans"                  133607
 5 Ain       "Population – De 55 à 64 ans"                  101559
 6 Ain       "Population – De 65 à 79 ans"                   87620
 7 Ain       "Population – Moins de 15 ans"                  94163
 8 Aisne     "Population – 80 ans ou plus"                   29797
 9 Aisne     "Population – De 15 à 24 ans "                  84413
10 Aisne     "Population – De 25 à 39 ans"                   84205
# ℹ 690 more rows
…
  # Résultat final
  select(GEO_LABEL, TAB_MEASURE_LABEL, population_exacte_region) %>%
  arrange(GEO_LABEL, TAB_MEASURE_LABEL) %>%
  collect()

! Grouped output by "GEO_LABEL".
ℹ Override behaviour and silence this message with the `.groups` argument.
ℹ Or use `.by` instead of `group_by()`.

structure_regions

# A tibble: 119 × 3
# Groups:   GEO_LABEL [17]
   GEO_LABEL               TAB_MEASURE_LABEL              population_exacte_re…¹
   <chr>                   <chr>                                           <dbl>
 1 Auvergne-Rhône-Alpes    "Population – 80 ans ou plus"                  475121
 2 Auvergne-Rhône-Alpes    "Population – De 15 à 24 ans "                1393273
 3 Auvergne-Rhône-Alpes    "Population – De 25 à 39 ans"                 1414720
 4 Auvergne-Rhône-Alpes    "Population – De 40 à 54 ans"                 1512587
 5 Auvergne-Rhône-Alpes    "Population – De 55 à 64 ans"                 1208159
 6 Auvergne-Rhône-Alpes    "Population – De 65 à 79 ans"                 1129389
 7 Auvergne-Rhône-Alpes    "Population – Moins de 15 ans"                1030634
 8 Bourgogne-Franche-Comté "Population – 80 ans ou plus"                  190619
 9 Bourgogne-Franche-Comté "Population – De 15 à 24 ans "                 446475
10 Bourgogne-Franche-Comté "Population – De 25 à 39 ans"                  434235
# ℹ 109 more rows
# ℹ abbreviated name: ¹​population_exacte_region
